<svg width="35" height="35" viewBox="0 0 35 35" fill="none" xmlns="http://www.w3.org/2000/svg">
<circle cx="17.5" cy="17.5" r="17.5" fill="white" fill-opacity="0.9"/>
<circle cx="17.5" cy="17.5" r="16" stroke="black" stroke-opacity="0.54" stroke-width="3"/>
<circle cx="17.5" cy="17.5" r="11.5" fill="black" fill-opacity="0.54"/>
<text x="17.5" y="22" font-family="Nunito" text-anchor="middle" font-size="14px" fill="white" fill-opacity="0.9">{v}</text>
</svg>
